[gd_scene load_steps=2 format=2]

[ext_resource path="res://Art/Enemies/Animal Heads/Crocodile.png" type="Texture" id=1]

[node name="Crocodile" type="Sprite"]
texture = ExtResource( 1 )
centered = false
offset = Vector2( -68.5, -68.5 )
